# DO NOT EDIT - See: https://www.eclipse.org/jetty/documentation/current/startup-modules.html

[description]
Configures Jetty to use the "CdiDecoratingListener" as the default CDI mode.
This mode that allows a webapp to register it's own CDI decorator.

[environment]
ee10

[tag]
cdi

[provides]
cdi-mode

[depend]
ee10-cdi

[ini]
jetty.cdi.mode=CdiDecoratingListener
